1	195.276	14.400684	2221.289062	2.874425	1155.234375	1.706257	2151.367188	19.356053	1539.240591	10.754441	2134.082031	26.936523	2025.993583	1.294648	1421.171875	5.749023	716.601374	563.898690	
2	194.638330	14.401116	2221.355575	2.874511	1155.269190	1.706308	2151.431213	19.356618	1539.286959	10.754762	2134.145069	26.937284	2026.053159	1.294687	1421.214585	5.749188	716.622753	563.915589	
3	163.865023	14.451964	2222.254429	2.863034	1141.326807	1.699988	2116.637116	18.638498	1542.337729	10.820951	2197.979357	26.957770	2033.230234	1.282431	1414.382138	5.762865	713.174979	565.499524	
4	155.618225	14.367093	2242.141331	2.872153	1159.425836	1.714811	2153.461594	18.862055	1548.943615	10.744143	2096.180241	26.950656	2004.267782	1.284096	1443.543085	5.837736	714.878508	565.389062	
5	154.925069	14.366813	2242.131397	2.872129	1159.354072	1.714817	2153.377030	18.862333	1548.944154	10.743946	2096.138928	26.950683	2004.319528	1.284095	1443.634959	5.837887	714.879281	565.388875	
6	119.320414	14.378606	2225.848004	2.865288	1184.396594	1.711848	2132.241308	18.618594	1559.085443	10.811614	2125.829954	26.725184	2020.645606	1.288439	1448.695727	5.836687	713.472228	568.392068	
7	119.320414	14.378606	2225.848004	2.865288	1184.396594	1.711848	2132.241308	18.618594	1559.085443	10.811614	2125.829954	26.725184	2020.645606	1.288439	1448.695727	5.836687	713.472228	568.392068	
8	119.320414	14.378606	2225.848004	2.865288	1184.396594	1.711848	2132.241308	18.618594	1559.085443	10.811614	2125.829954	26.725184	2020.645606	1.288439	1448.695727	5.836687	713.472228	568.392068	
9	119.320414	14.378606	2225.848004	2.865288	1184.396594	1.711848	2132.241308	18.618594	1559.085443	10.811614	2125.829954	26.725184	2020.645606	1.288439	1448.695727	5.836687	713.472228	568.392068	
10	119.320414	14.378606	2225.848004	2.865288	1184.396594	1.711848	2132.241308	18.618594	1559.085443	10.811614	2125.829954	26.725184	2020.645606	1.288439	1448.695727	5.836687	713.472228	568.392068	
11	119.320414	14.378606	2225.848004	2.865288	1184.396594	1.711848	2132.241308	18.618594	1559.085443	10.811614	2125.829954	26.725184	2020.645606	1.288439	1448.695727	5.836687	713.472228	568.392068	
12	119.320414	14.378606	2225.848004	2.865288	1184.396594	1.711848	2132.241308	18.618594	1559.085443	10.811614	2125.829954	26.725184	2020.645606	1.288439	1448.695727	5.836687	713.472228	568.392068	
13	119.320414	14.378606	2225.848004	2.865288	1184.396594	1.711848	2132.241308	18.618594	1559.085443	10.811614	2125.829954	26.725184	2020.645606	1.288439	1448.695727	5.836687	713.472228	568.392068	
14	119.320414	14.378606	2225.848004	2.865288	1184.396594	1.711848	2132.241308	18.618594	1559.085443	10.811614	2125.829954	26.725184	2020.645606	1.288439	1448.695727	5.836687	713.472228	568.392068	
15	119.320414	14.378606	2225.848004	2.865288	1184.396594	1.711848	2132.241308	18.618594	1559.085443	10.811614	2125.829954	26.725184	2020.645606	1.288439	1448.695727	5.836687	713.472228	568.392068	
16	119.320414	14.378606	2225.848004	2.865288	1184.396594	1.711848	2132.241308	18.618594	1559.085443	10.811614	2125.829954	26.725184	2020.645606	1.288439	1448.695727	5.836687	713.472228	568.392068	
17	119.320414	14.378606	2225.848004	2.865288	1184.396594	1.711848	2132.241308	18.618594	1559.085443	10.811614	2125.829954	26.725184	2020.645606	1.288439	1448.695727	5.836687	713.472228	568.392068	
18	113.469947	14.386400	2248.788537	2.896585	1183.893799	1.747083	2179.978581	18.632376	1552.158515	10.808035	2063.323799	26.715307	2016.721397	1.287964	1446.849734	5.835609	714.465969	567.655141	
19	113.469947	14.386400	2248.788537	2.896585	1183.893799	1.747083	2179.978581	18.632376	1552.158515	10.808035	2063.323799	26.715307	2016.721397	1.287964	1446.849734	5.835609	714.465969	567.655141	
20	113.469947	14.386400	2248.788537	2.896585	1183.893799	1.747083	2179.978581	18.632376	1552.158515	10.808035	2063.323799	26.715307	2016.721397	1.287964	1446.849734	5.835609	714.465969	567.655141	
21	113.469947	14.386400	2248.788537	2.896585	1183.893799	1.747083	2179.978581	18.632376	1552.158515	10.808035	2063.323799	26.715307	2016.721397	1.287964	1446.849734	5.835609	714.465969	567.655141	
22	113.469947	14.386400	2248.788537	2.896585	1183.893799	1.747083	2179.978581	18.632376	1552.158515	10.808035	2063.323799	26.715307	2016.721397	1.287964	1446.849734	5.835609	714.465969	567.655141	
23	113.469947	14.386400	2248.788537	2.896585	1183.893799	1.747083	2179.978581	18.632376	1552.158515	10.808035	2063.323799	26.715307	2016.721397	1.287964	1446.849734	5.835609	714.465969	567.655141	
24	113.469947	14.386400	2248.788537	2.896585	1183.893799	1.747083	2179.978581	18.632376	1552.158515	10.808035	2063.323799	26.715307	2016.721397	1.287964	1446.849734	5.835609	714.465969	567.655141	
25	113.469947	14.386400	2248.788537	2.896585	1183.893799	1.747083	2179.978581	18.632376	1552.158515	10.808035	2063.323799	26.715307	2016.721397	1.287964	1446.849734	5.835609	714.465969	567.655141	
26	113.469947	14.386400	2248.788537	2.896585	1183.893799	1.747083	2179.978581	18.632376	1552.158515	10.808035	2063.323799	26.715307	2016.721397	1.287964	1446.849734	5.835609	714.465969	567.655141	
27	113.469947	14.386400	2248.788537	2.896585	1183.893799	1.747083	2179.978581	18.632376	1552.158515	10.808035	2063.323799	26.715307	2016.721397	1.287964	1446.849734	5.835609	714.465969	567.655141	
28	113.469947	14.386400	2248.788537	2.896585	1183.893799	1.747083	2179.978581	18.632376	1552.158515	10.808035	2063.323799	26.715307	2016.721397	1.287964	1446.849734	5.835609	714.465969	567.655141	
29	113.469947	14.386400	2248.788537	2.896585	1183.893799	1.747083	2179.978581	18.632376	1552.158515	10.808035	2063.323799	26.715307	2016.721397	1.287964	1446.849734	5.835609	714.465969	567.655141	
30	113.469947	14.386400	2248.788537	2.896585	1183.893799	1.747083	2179.978581	18.632376	1552.158515	10.808035	2063.323799	26.715307	2016.721397	1.287964	1446.849734	5.835609	714.465969	567.655141	
31	113.469947	14.386400	2248.788537	2.896585	1183.893799	1.747083	2179.978581	18.632376	1552.158515	10.808035	2063.323799	26.715307	2016.721397	1.287964	1446.849734	5.835609	714.465969	567.655141	
32	110.535989	14.387846	2248.501670	2.870186	1197.691193	1.738297	2178.540018	18.647893	1558.466895	10.816877	2065.438156	26.715463	2024.654281	1.296692	1446.870824	5.835433	714.132064	567.343911	
33	110.535989	14.387846	2248.501670	2.870186	1197.691193	1.738297	2178.540018	18.647893	1558.466895	10.816877	2065.438156	26.715463	2024.654281	1.296692	1446.870824	5.835433	714.132064	567.343911	
34	110.535989	14.387846	2248.501670	2.870186	1197.691193	1.738297	2178.540018	18.647893	1558.466895	10.816877	2065.438156	26.715463	2024.654281	1.296692	1446.870824	5.835433	714.132064	567.343911	
35	110.535989	14.387846	2248.501670	2.870186	1197.691193	1.738297	2178.540018	18.647893	1558.466895	10.816877	2065.438156	26.715463	2024.654281	1.296692	1446.870824	5.835433	714.132064	567.343911	
36	110.535989	14.387846	2248.501670	2.870186	1197.691193	1.738297	2178.540018	18.647893	1558.466895	10.816877	2065.438156	26.715463	2024.654281	1.296692	1446.870824	5.835433	714.132064	567.343911	
37	110.535989	14.387846	2248.501670	2.870186	1197.691193	1.738297	2178.540018	18.647893	1558.466895	10.816877	2065.438156	26.715463	2024.654281	1.296692	1446.870824	5.835433	714.132064	567.343911	
38	110.535989	14.387846	2248.501670	2.870186	1197.691193	1.738297	2178.540018	18.647893	1558.466895	10.816877	2065.438156	26.715463	2024.654281	1.296692	1446.870824	5.835433	714.132064	567.343911	
39	110.535989	14.387846	2248.501670	2.870186	1197.691193	1.738297	2178.540018	18.647893	1558.466895	10.816877	2065.438156	26.715463	2024.654281	1.296692	1446.870824	5.835433	714.132064	567.343911	
40	110.535989	14.387846	2248.501670	2.870186	1197.691193	1.738297	2178.540018	18.647893	1558.466895	10.816877	2065.438156	26.715463	2024.654281	1.296692	1446.870824	5.835433	714.132064	567.343911	
41	110.535989	14.387846	2248.501670	2.870186	1197.691193	1.738297	2178.540018	18.647893	1558.466895	10.816877	2065.438156	26.715463	2024.654281	1.296692	1446.870824	5.835433	714.132064	567.343911	
42	110.535989	14.387846	2248.501670	2.870186	1197.691193	1.738297	2178.540018	18.647893	1558.466895	10.816877	2065.438156	26.715463